Chapter 1 Econometrics | Econometrics
…
\(\beta_n\) are the parameters. They give information about the relationship between the independent and dependent variable.

After establishing the econometric model, we can start doing hypothesis about the parameters. Is the relationship positive, negative or zero?

Then, data is required to estimate the parameters of the established model. There are different types of data structures:

Cross-Sectional Data

A Sample of variety of units taken in a point in time. Minor timing differences in collecting the data are ignored. In these kinds of data, the order of the observations doesn’t matter.

Random sampling is needed to get better results. It means the observations drawed are independent. However, it is not always appropriate to make this assumption. Later we will understand that this aspect is important to hold the ceteris paribus assumption and establish a relationship between the variables, given everything else is constant. Random sampling is violated when population is not large enough, so the observations are not independent draws. It those cases, the same methodology has to be refined. In some cases, Random sampling can be checked if the descriptive statistics are balanced; for example, if we are making a comparison between women and men, the sample should be compound 50% women and 50% men, approximately.

An example of cross-sectional data using dplyr package (Wickham et al. 2023) is shown below:

## # A tibble: 87 × 14
##    name     height  mass hair_color skin_color eye_color birth_year sex   gender
##    <chr>     <int> <dbl> <chr>      <chr>      <chr>          <dbl> <chr> <chr> 
##  1 Luke Sk…    172    77 blond      fair       blue            19   male  mascu…
##  2 C-3PO       167    75 <NA>       gold       yellow         112   none  mascu…
##  3 R2-D2        96    32 <NA>       white, bl… red             33   none  mascu…
##  4 Darth V…    202   136 none       white      yellow          41.9 male  mascu…
##  5 Leia Or…    150    49 brown      light      brown           19   fema… femin…
##  6 Owen La…    178   120 brown, gr… light      blue            52   male  mascu…
##  7 Beru Wh…    165    75 brown      light      blue            47   fema… femin…
##  8 R5-D4        97    32 <NA>       white, red red             NA   none  mascu…
##  9 Biggs D…    183    84 black      light      brown           24   male  mascu…
## 10 Obi-Wan…    182    77 auburn, w… fair       blue-gray       57   male  mascu…
## # ℹ 77 more rows
## # ℹ 5 more variables: homeworld <chr>, species <chr>, films <list>,
## #   vehicles <list>, starships <list>
…
